// Jest Snapshot v1, https://goo.gl/fbAQLP

exports[`Home test to match snapshot 1`] = `
<DocumentFragment>
  <div
    class="css-j7qwjs"
  >
    <div
      class="main css-0"
    >
      <div
        class="css-vj7vmr"
      >
        <div
          id="pikachu"
        />
        <div
          id="ash"
        />
      </div>
    </div>
  </div>
  <div
    class="css-fu06s4"
  >
    <div
      class="css-1x73cal"
    >
      <button
        class="chakra-button css-1bh9jzg"
        disabled=""
        type="button"
      >
        I Choose You
      </button>
    </div>
  </div>
</DocumentFragment>
`;
